<?xml version="1.0" encoding="UTF-8" standalone="no"?>
<!-- Svg Vector Icons : http://www.onlinewebfonts.com/icon -->

<svg
   xmlns:dc="http://purl.org/dc/elements/1.1/"
   xmlns:cc="http://creativecommons.org/ns#"
   xmlns:rdf="http://www.w3.org/1999/02/22-rdf-syntax-ns#"
   xmlns:svg="http://www.w3.org/2000/svg"
   xmlns="http://www.w3.org/2000/svg"
   xmlns:sodipodi="http://sodipodi.sourceforge.net/DTD/sodipodi-0.dtd"
   xmlns:inkscape="http://www.inkscape.org/namespaces/inkscape"
   version="1.1"
   x="0px"
   y="0px"
   viewBox="0 0 1030 1030"
   enable-background="new 0 0 1000 1000"
   xml:space="preserve"
   id="svg10"
   sodipodi:docname="Close.svg"
   width="1030"
   height="1030"
   inkscape:version="0.92.3 (2405546, 2018-03-11)"><defs
   id="defs14" /><sodipodi:namedview
   pagecolor="#ffffff"
   bordercolor="#666666"
   borderopacity="1"
   objecttolerance="10"
   gridtolerance="10"
   guidetolerance="10"
   inkscape:pageopacity="0"
   inkscape:pageshadow="2"
   inkscape:window-width="1920"
   inkscape:window-height="1017"
   id="namedview12"
   showgrid="false"
   fit-margin-top="0"
   fit-margin-left="0"
   fit-margin-right="0"
   fit-margin-bottom="0"
   inkscape:zoom="0.472"
   inkscape:cx="-131.00912"
   inkscape:cy="631.82472"
   inkscape:window-x="1358"
   inkscape:window-y="-8"
   inkscape:window-maximized="1"
   inkscape:current-layer="svg10" />
<metadata
   id="metadata2"> Svg Vector Icons : http://www.onlinewebfonts.com/icon <rdf:RDF><cc:Work
     rdf:about=""><dc:format>image/svg+xml</dc:format><dc:type
       rdf:resource="http://purl.org/dc/dcmitype/StillImage" /><dc:title></dc:title></cc:Work></rdf:RDF></metadata>
<path
   inkscape:connector-curvature="0"
   style="fill:#000000;fill-opacity:1;stroke:#000000;stroke-width:50;stroke-miterlimit:4;stroke-dasharray:none;stroke-dashoffset:0;stroke-opacity:1"
   id="path4"
   d="M 515,1005 C 244.8,1005 25,785.2 25,515 25,244.8 244.8,25 515,25 c 270.2,0 490,219.8 490,490 0,270.2 -219.8,490 -490,490 z M 515,95.3 C 283.6,95.3 95.3,283.6 95.3,515 95.3,746.4 283.6,934.7 515,934.7 746.4,934.7 934.7,746.4 934.7,515 934.7,283.6 746.4,95.3 515,95.3 Z" /><path
   inkscape:connector-curvature="0"
   style="fill:#000000;fill-opacity:1;stroke:#000000;stroke-width:50;stroke-miterlimit:4;stroke-dasharray:none;stroke-dashoffset:0;stroke-opacity:1"
   id="path6"
   d="M 564.3,516.5 715.6,366.8 c 13.8,-13.6 13.9,-35.7 0.3,-49.5 -13.6,-13.8 -35.8,-13.9 -49.5,-0.3 L 514.9,466.9 365.6,317.2 c -13.7,-13.7 -35.8,-13.8 -49.5,-0.1 -13.7,13.6 -13.7,35.8 -0.1,49.5 L 465,516.1 314.8,664.8 c -13.8,13.6 -13.9,35.7 -0.3,49.5 6.9,6.9 15.9,10.4 24.9,10.4 8.9,0 17.8,-3.4 24.6,-10.1 L 514.5,565.8 666.2,718 c 6.8,6.9 15.8,10.3 24.8,10.3 9,0 17.9,-3.4 24.7,-10.2 13.7,-13.7 13.7,-35.8 0.1,-49.5 z" />
</svg>